[gd_scene load_steps=2 format=3 uid="uid://6s1gl3wofmj3"]

[ext_resource type="Script" path="res://objects/debugger/debug_info.gd" id="1_jxy3t"]

[node name="debug_info" type="Control"]
layout_mode = 3
anchors_preset = 15
anchor_right = 1.0
anchor_bottom = 1.0
grow_horizontal = 2
grow_vertical = 2
script = ExtResource("1_jxy3t")

[node name="Label" type="Label" parent="."]
layout_mode = 0
offset_right = 411.0
offset_bottom = 74.0
text = "DEBUGGER"
